<?xml version="1.0" encoding="UTF-8"?>
<session version="1.0">
<refactoring comment="Delete 4 resources" deleteContents="false" description="Delete 4 resources" element1="/alphaCellCounterCPU1/source/CommProtocol.c.bak" element2="/alphaCellCounterCPU1/source/InitBoard.c.bak" element3="/alphaCellCounterCPU1/source/StepperMotorDriver.c.bak" element4="/alphaCellCounterCPU1/source/SystemInitialize.c.bak" flags="7" id="org.eclipse.ltk.core.refactoring.delete.resources" resources="4" stamp="1499344615085"/>
</session>