<?xml version="1.0" encoding="UTF-8"?>
<session version="1.0">
<refactoring comment="Delete 4 resources" deleteContents="false" description="Delete 4 resources" element1="/alphaCellCounterCPU1/mbd/BloodCellCounter_private.h" element2="/alphaCellCounterCPU1/mbd/BloodCellCounter_types.h" element3="/alphaCellCounterCPU1/mbd/BloodCellCounter.c" element4="/alphaCellCounterCPU1/mbd/BloodCellCounter.h" flags="7" id="org.eclipse.ltk.core.refactoring.delete.resources" resources="4" stamp="1605588855148"/>
</session>