<?xml version="1.0" encoding="UTF-8"?>
<session version="1.0">
<refactoring comment="Rename resource &apos;alphaCellCounterCPU1/Readme/reame.txt&apos; to &apos;readme.txt&apos;" description="Rename resource &apos;reame.txt&apos;" flags="7" id="org.eclipse.ltk.core.refactoring.rename.resource" input="Readme/reame.txt" name="readme.txt" stamp="1298839949274" updateReferences="true"/>
</session>